{
   "projectList" : {
      "project" : [ {
         "dateBegin" : "2020-01-01T00:00:00+03:00",
         "dateEnd" : "2020-02-02T00:00:00+03:00",
         "description" : "description",
         "id" : "07764a73-15e5-4923-b3d6-e6f85a0e4ebd",
         "name" : "name",
         "status" : "PLANNED",
         "userId" : "c95d4eac-a09e-48ef-b6e9-ae34624efe1f"
      } ]
   }
}